<?xml version="1.0" encoding="UTF-8" standalone="no"?><svg xmlns="http://www.w3.org/2000/svg" xmlns:xlink="http://www.w3.org/1999/xlink" contentScriptType="application/ecmascript" contentStyleType="text/css" height="101px" preserveAspectRatio="none" style="width:198px;height:101px;" version="1.1" viewBox="0 0 198 101" width="198px" zoomAndPan="magnify"><defs><filter height="300%" id="f1conahq3zajcl" width="300%" x="-1" y="-1"><feGaussianBlur result="blurOut" stdDeviation="2.0"/><feColorMatrix in="blurOut" result="blurOut2" type="matrix" values="0 0 0 0 0 0 0 0 0 0 0 0 0 0 0 0 0 0 .4 0"/><feOffset dx="4.0" dy="4.0" in="blurOut2" result="blurOut3"/><feBlend in="SourceGraphic" in2="blurOut3" mode="normal"/></filter></defs><g><!--class O--><a target="_top" xlink:actuate="onRequest" xlink:href="O.html" xlink:show="new" xlink:title="O.html" xlink:type="simple"><rect fill="#FEFECE" filter="url(#f1conahq3zajcl)" height="60.8047" id="O" style="stroke: #A80036; stroke-width: 1.5;" width="57" x="58.5" y="8"/><ellipse cx="80.7" cy="24" fill="#ADD1B2" rx="11" ry="11" style="stroke: #A80036; stroke-width: 1.0;"/><path d="M83.6688,29.6406 Q83.0906,29.9375 82.45,30.0859 Q81.8094,30.2344 81.1063,30.2344 Q78.6063,30.2344 77.2859,28.5859 Q75.9656,26.9375 75.9656,23.8125 Q75.9656,20.6875 77.2859,19.0313 Q78.6063,17.375 81.1063,17.375 Q81.8094,17.375 82.4578,17.5313 Q83.1063,17.6875 83.6688,17.9844 L83.6688,20.7031 Q83.0438,20.125 82.45,19.8516 Q81.8563,19.5781 81.2313,19.5781 Q79.8875,19.5781 79.2,20.6484 Q78.5125,21.7188 78.5125,23.8125 Q78.5125,25.9063 79.2,26.9766 Q79.8875,28.0469 81.2313,28.0469 Q81.8563,28.0469 82.45,27.7734 Q83.0438,27.5 83.6688,26.9219 L83.6688,29.6406 Z "/><text fill="#000000" font-family="sans-serif" font-size="12" lengthAdjust="spacingAndGlyphs" textLength="9" x="96.3" y="28.1543">O</text><line style="stroke: #A80036; stroke-width: 1.5;" x1="59.5" x2="114.5" y1="40" y2="40"/><line style="stroke: #A80036; stroke-width: 1.5;" x1="59.5" x2="114.5" y1="48" y2="48"/><ellipse cx="69.5" cy="59.9023" fill="#84BE84" rx="3" ry="3" style="stroke: #038048; stroke-width: 1.0;"/><text fill="#000000" font-family="sans-serif" font-size="11" lengthAdjust="spacingAndGlyphs" textLength="31" x="78.5" y="62.2104">O(int)</text></a><text fill="#888888" font-family="sans-serif" font-size="10" lengthAdjust="spacingAndGlyphs" textLength="186" x="0" y="88.2822">UMLDoclet 1.1.2, PlantUML 1.2018.12</text><!--
@startuml

    class O [[O.html]] {
        +O(int)
    }


    center footer UMLDoclet 1.1.2, PlantUML 1.2018.12
@enduml

PlantUML version 1.2018.12(Sun Oct 21 12:15:15 CEST 2018)
(APACHE source distribution)
Java Runtime: OpenJDK Runtime Environment
JVM: OpenJDK 64-Bit Server VM
Java Version: 1.8.0_192-b26
Operating System: Linux
OS Version: 4.19.1-arch1-1-ARCH
Default Encoding: UTF-8
Language: en
Country: US
--></g></svg>