@startuml

    enum Tetromino.Orientation [[Tetromino.Orientation.html]] {
        {static} +NORTH
        {static} +EAST
        {static} +SOUTH
        {static} +WEST
        +cycleCW(): Tetromino.Orientation
        +cycleCCW(): Tetromino.Orientation
    }


    center footer UMLDoclet 1.1.2, PlantUML 1.2018.12
@enduml
